                                           Shantell Robinson
                                      3644 Hartman Ave Omaha Ne 68111
                                           Adult Education GED 1999
                                        *Thomas Fizgerald [July 2001 - March 2002]
                                        *Douglas County Center [March 2002 - April 2004]
                                        *Skyline Mannor [April 2004 - September 2005]
                                        *Life Care Center of Omaha [March 2011 - May 2016
                                        *Home Health [September 2005 - Now]
                                             
                                                  Skills

                                           *CNA
                                           *Able to work in fast paced
                                           *Organization
                                           *Lift items up 130 pounds
                                           *Money handling
                                           *Good Communications
                                           *Enjoy working as a team
                                           *Great listening skills